ST 606: Exploratory analysis of Childrens Fitness
…
Checking if the same person misses the runs frequently

## # A tibble: 10,894 x 5
## # Groups:   ID [10,894]
##       ID gender countna counttot      NA_perc
##    <int> <fct>    <int>    <int>        <dbl>
##  1  1152 boy          7        8  87.5       
##  2  5115 girl         7       11  63.63636364
##  3  5530 boy          7       10  70         
##  4  6794 girl         7        8  87.5       
##  5 11070 boy          7        7 100         
##  6    85 boy          6       17  35.29411765
##  7   331 girl         6       21  28.57142857
##  8   345 girl         6       22  27.27272727
##  9   406 boy          6       16  37.5       
## 10   943 boy          6        6 100         
## # ... with 10,884 more rows
…
